flipflop/simulation/qsim/flipflop.msim.vcd
$comment
	File created using the following command:
		vcd file flipflop.msim.vcd -direction
$end
$date
	Tue Aug 22 16:19:13 2023
$end
$version
	ModelSim Version 10.5b
$end
$timescale
	1ps
$end

$scope module flipflop_vlg_vec_tst $end
$var reg 1 ! CLK $end
$var reg 1 " D $end
$var reg 1 # D2 $end
$var reg 1 $ D3 $end
$var reg 1 % D4 $end
$var reg 1 & LOAD $end
$var wire 1 ' q1 $end
$var wire 1 ( q2 $end
$var wire 1 ) q3 $end
$var wire 1 * q4 $end

$scope module i1 $end
$var wire 1 + gnd $end
$var wire 1 , vcc $end
$var wire 1 - unknown $end
$var tri1 1 . devclrn $end
$var tri1 1 / devpor $end
$var tri1 1 0 devoe $end
$var wire 1 1 ~QUARTUS_CREATED_GND~I_combout $end
$var wire 1 2 CLK~input_o $end
$var wire 1 3 CLK~inputCLKENA0_outclk $end
$var wire 1 4 D~input_o $end
$var wire 1 5 inst~feeder_combout $end
$var wire 1 6 LOAD~input_o $end
$var wire 1 7 inst~q $end
$var wire 1 8 D2~input_o $end
$var wire 1 9 inst2~q $end
$var wire 1 : D3~input_o $end
$var wire 1 ; inst3~q $end
$var wire 1 < D4~input_o $end
$var wire 1 = inst4~feeder_combout $end
$var wire 1 > inst4~q $end
$upscope $end
$upscope $end
$enddefinitions $end
#0
$dumpvars
0!
0"
0#
0$
0%
0&
0'
0(
0)
0*
0+
1,
x-
1.
1/
10
01
02
03
04
05
06
07
08
09
0:
0;
0<
0=
0>
$end
#5000
1!
12
13
#10000
0!
02
03
#15000
1&
1!
16
12
13
#20000
0!
02
03
#25000
1!
12
13
#30000
1"
1#
1$
1%
0&
0!
14
18
1:
1<
06
02
03
1=
15
#35000
1!
12
13
#40000
0!
02
03
#45000
1&
1!
16
12
13
1>
1;
19
17
1'
1(
1)
1*
#50000
0!
02
03
#55000
1!
12
13
#60000
0"
0#
0$
0%
0&
0!
04
08
0:
0<
06
02
03
0=
05
#65000
1!
12
13
#70000
0!
02
03
#75000
1&
1!
16
12
13
0>
0;
09
07
0'
0(
0)
0*
#80000
0!
02
03
#85000
1!
12
13
#90000
1"
1#
1$
1%
0&
0!
14
18
1:
1<
06
02
03
1=
15
#95000
1!
12
13
#100000
0!
02
03
#105000
1&
1!
16
12
13
1>
1;
19
17
1'
1(
1)
1*
#110000
0!
02
03
#115000
1!
12
13
#120000
0"
0#
0$
0%
0&
0!
04
08
0:
0<
06
02
03
0=
05
#125000
1!
12
13
#130000
0!
02
03
#135000
1&
1!
16
12
13
0>
0;
09
07
0'
0(
0)
0*
#140000
0!
02
03
#145000
1!
12
13
#150000
1"
1#
1$
1%
0&
0!
14
18
1:
1<
06
02
03
1=
15
#155000
1!
12
13
#160000
0!
02
03
#165000
1&
1!
16
12
13
1>
1;
19
17
1'
1(
1)
1*
#170000
0!
02
03
#175000
1!
12
13
#180000
0"
0#
0$
0%
0&
0!
04
08
0:
0<
06
02
03
0=
05
#185000
1!
12
13
#190000
0!
02
03
#195000
1&
1!
16
12
13
0>
0;
09
07
0'
0(
0)
0*
#200000
0!
02
03
#205000
1!
12
13
#210000
1"
1#
1$
1%
0&
0!
14
18
1:
1<
06
02
03
1=
15
#215000
1!
12
13
#220000
0!
02
03
#225000
1&
1!
16
12
13
1>
1;
19
17
1'
1(
1)
1*
#230000
0!
02
03
#235000
1!
12
13
#240000
0"
0#
0$
0%
0&
0!
04
08
0:
0<
06
02
03
0=
05
#245000
1!
12
13
#250000
0!
02
03
#255000
1&
1!
16
12
13
0>
0;
09
07
0'
0(
0)
0*
#260000
0!
02
03
#265000
1!
12
13
#270000
1"
1#
1$
1%
0&
0!
14
18
1:
1<
06
02
03
1=
15
#275000
1!
12
13
#280000
0!
02
03
#285000
1&
1!
16
12
13
1>
1;
19
17
1'
1(
1)
1*
#290000
0!
02
03
#295000
1!
12
13
#300000
0"
0#
0$
0%
0&
0!
04
08
0:
0<
06
02
03
0=
05
#305000
1!
12
13
#310000
0!
02
03
#315000
1&
1!
16
12
13
0>
0;
09
07
0'
0(
0)
0*
#320000
0!
02
03
#325000
1!
12
13
#330000
1"
1#
1$
1%
0&
0!
14
18
1:
1<
06
02
03
1=
15
#335000
1!
12
13
#340000
0!
02
03
#345000
1&
1!
16
12
13
1>
1;
19
17
1'
1(
1)
1*
#350000
0!
02
03
#355000
1!
12
13
#360000
0"
0#
0$
0%
0&
0!
04
08
0:
0<
06
02
03
0=
05
#365000
1!
12
13
#370000
0!
02
03
#375000
1&
1!
16
12
13
0>
0;
09
07
0'
0(
0)
0*
#380000
0!
02
03
#385000
1!
12
13
#390000
1"
1#
1$
1%
0&
0!
14
18
1:
1<
06
02
03
1=
15
#395000
1!
12
13
#400000
0!
02
03
#405000
1&
1!
16
12
13
1>
1;
19
17
1'
1(
1)
1*
#410000
0!
02
03
#415000
1!
12
13
#420000
0"
0#
0$
0%
0&
0!
04
08
0:
0<
06
02
03
0=
05
#425000
1!
12
13
#430000
0!
02
03
#435000
1&
1!
16
12
13
0>
0;
09
07
0'
0(
0)
0*
#440000
0!
02
03
#445000
1!
12
13
#450000
1"
1#
1$
1%
0&
0!
14
18
1:
1<
06
02
03
1=
15
#455000
1!
12
13
#460000
0!
02
03
#465000
1&
1!
16
12
13
1>
1;
19
17
1'
1(
1)
1*
#470000
0!
02
03
#475000
1!
12
13
#480000
0"
0#
0$
0%
0&
0!
04
08
0:
0<
06
02
03
0=
05
#485000
1!
12
13
#490000
0!
02
03
#495000
1&
1!
16
12
13
0>
0;
09
07
0'
0(
0)
0*
#500000
0!
02
03
#505000
1!
12
13
#510000
1"
1#
1$
1%
0&
0!
14
18
1:
1<
06
02
03
1=
15
#515000
1!
12
13
#520000
0!
02
03
#525000
1&
1!
16
12
13
1>
1;
19
17
1'
1(
1)
1*
#530000
0!
02
03
#535000
1!
12
13
#540000
0"
0#
0$
0%
0&
0!
04
08
0:
0<
06
02
03
0=
05
#545000
1!
12
13
#550000
0!
02
03
#555000
1&
1!
16
12
13
0>
0;
09
07
0'
0(
0)
0*
#560000
0!
02
03
#565000
1!
12
13
#570000
1"
1#
1$
1%
0&
0!
14
18
1:
1<
06
02
03
1=
15
#575000
1!
12
13
#580000
0!
02
03
#585000
1&
1!
16
12
13
1>
1;
19
17
1'
1(
1)
1*
#590000
0!
02
03
#595000
1!
12
13
#600000
0"
0#
0$
0%
0&
0!
04
08
0:
0<
06
02
03
0=
05
#605000
1!
12
13
#610000
0!
02
03
#615000
1&
1!
16
12
13
0>
0;
09
07
0'
0(
0)
0*
#620000
0!
02
03
#625000
1!
12
13
#630000
1"
1#
1$
1%
0&
0!
14
18
1:
1<
06
02
03
1=
15
#635000
1!
12
13
#640000
0!
02
03
#645000
1&
1!
16
12
13
1>
1;
19
17
1'
1(
1)
1*
#650000
0!
02
03
#655000
1!
12
13
#660000
0"
0#
0$
0%
0&
0!
04
08
0:
0<
06
02
03
0=
05
#665000
1!
12
13
#670000
0!
02
03
#675000
1&
1!
16
12
13
0>
0;
09
07
0'
0(
0)
0*
#680000
0!
02
03
#685000
1!
12
13
#690000
1"
1#
1$
1%
0&
0!
14
18
1:
1<
06
02
03
1=
15
#695000
1!
12
13
#700000
0!
02
03
#705000
1&
1!
16
12
13
1>
1;
19
17
1'
1(
1)
1*
#710000
0!
02
03
#715000
1!
12
13
#720000
0"
0#
0$
0%
0&
0!
04
08
0:
0<
06
02
03
0=
05
#725000
1!
12
13
#730000
0!
02
03
#735000
1&
1!
16
12
13
0>
0;
09
07
0'
0(
0)
0*
#740000
0!
02
03
#745000
1!
12
13
#750000
1"
1#
1$
1%
0&
0!
14
18
1:
1<
06
02
03
1=
15
#755000
1!
12
13
#760000
0!
02
03
#765000
1&
1!
16
12
13
1>
1;
19
17
1'
1(
1)
1*
#770000
0!
02
03
#775000
1!
12
13
#780000
0"
0#
0$
0%
0&
0!
04
08
0:
0<
06
02
03
0=
05
#785000
1!
12
13
#790000
0!
02
03
#795000
1&
1!
16
12
13
0>
0;
09
07
0'
0(
0)
0*
#800000
0!
02
03
#805000
1!
12
13
#810000
1"
1#
1$
1%
0&
0!
14
18
1:
1<
06
02
03
1=
15
#815000
1!
12
13
#820000
0!
02
03
#825000
1&
1!
16
12
13
1>
1;
19
17
1'
1(
1)
1*
#830000
0!
02
03
#835000
1!
12
13
#840000
0"
0#
0$
0%
0&
0!
04
08
0:
0<
06
02
03
0=
05
#845000
1!
12
13
#850000
0!
02
03
#855000
1&
1!
16
12
13
0>
0;
09
07
0'
0(
0)
0*
#860000
0!
02
03
#865000
1!
12
13
#870000
1"
1#
1$
1%
0&
0!
14
18
1:
1<
06
02
03
1=
15
#875000
1!
12
13
#880000
0!
02
03
#885000
1&
1!
16
12
13
1>
1;
19
17
1'
1(
1)
1*
#890000
0!
02
03
#895000
1!
12
13
#900000
0"
0#
0$
0%
0&
0!
04
08
0:
0<
06
02
03
0=
05
#905000
1!
12
13
#910000
0!
02
03
#915000
1&
1!
16
12
13
0>
0;
09
07
0'
0(
0)
0*
#920000
0!
02
03
#925000
1!
12
13
#930000
1"
1#
1$
1%
0&
0!
14
18
1:
1<
06
02
03
1=
15
#935000
1!
12
13
#940000
0!
02
03
#945000
1&
1!
16
12
13
1>
1;
19
17
1'
1(
1)
1*
#950000
0!
02
03
#955000
1!
12
13
#960000
0"
0#
0$
0%
0&
0!
04
08
0:
0<
06
02
03
0=
05
#965000
1!
12
13
#970000
0!
02
03
#975000
1&
1!
16
12
13
0>
0;
09
07
0'
0(
0)
0*
#980000
0!
02
03
#985000
1!
12
13
#990000
1"
1#
1$
1%
0&
0!
14
18
1:
1<
06
02
03
1=
15
#995000
1!
12
13
