ROM/simulation/qsim/ROM.msim.vcd
$comment
	File created using the following command:
		vcd file ROM.msim.vcd -direction
$end
$date
	Tue Sep 19 13:28:54 2023
$end
$version
	ModelSim Version 10.5b
$end
$timescale
	1ps
$end

$scope module rom_vhd_vec_tst $end
$var wire 1 ! a1 $end
$var wire 1 " a2 $end
$var wire 1 # a3 $end
$var wire 1 $ a4 $end
$var wire 1 % a5 $end
$var wire 1 & a6 $end
$var wire 1 ' a7 $end
$var wire 1 ( ADD [7] $end
$var wire 1 ) ADD [6] $end
$var wire 1 * ADD [5] $end
$var wire 1 + ADD [4] $end
$var wire 1 , ADD [3] $end
$var wire 1 - ADD [2] $end
$var wire 1 . ADD [1] $end
$var wire 1 / ADD [0] $end
$var wire 1 0 b1 $end
$var wire 1 1 b2 $end
$var wire 1 2 b3 $end
$var wire 1 3 b4 $end
$var wire 1 4 b5 $end
$var wire 1 5 b6 $end
$var wire 1 6 b7 $end
$var wire 1 7 c1 $end
$var wire 1 8 c2 $end
$var wire 1 9 c3 $end
$var wire 1 : c4 $end
$var wire 1 ; c5 $end
$var wire 1 < c6 $end
$var wire 1 = c7 $end
$var wire 1 > CLK $end
$var wire 1 ? d1 $end
$var wire 1 @ d2 $end
$var wire 1 A d3 $end
$var wire 1 B d4 $end
$var wire 1 C d5 $end
$var wire 1 D d6 $end
$var wire 1 E d7 $end
$var wire 1 F Memory [0] $end
$var wire 1 G Memory [1] $end
$var wire 1 H Memory [2] $end
$var wire 1 I Memory [3] $end
$var wire 1 J Memory [4] $end
$var wire 1 K Memory [5] $end
$var wire 1 L Memory [6] $end
$var wire 1 M Memory [7] $end
$var wire 1 N Memory [8] $end
$var wire 1 O Memory [9] $end
$var wire 1 P Memory [10] $end
$var wire 1 Q Memory [11] $end
$var wire 1 R Memory [12] $end
$var wire 1 S Memory [13] $end
$var wire 1 T Memory [14] $end
$var wire 1 U Memory [15] $end

$scope module i1 $end
$var wire 1 V gnd $end
$var wire 1 W vcc $end
$var wire 1 X unknown $end
$var wire 1 Y devoe $end
$var wire 1 Z devclrn $end
$var wire 1 [ devpor $end
$var wire 1 \ ww_devoe $end
$var wire 1 ] ww_devclrn $end
$var wire 1 ^ ww_devpor $end
$var wire 1 _ ww_a1 $end
$var wire 1 ` ww_CLK $end
$var wire 1 a ww_ADD [7] $end
$var wire 1 b ww_ADD [6] $end
$var wire 1 c ww_ADD [5] $end
$var wire 1 d ww_ADD [4] $end
$var wire 1 e ww_ADD [3] $end
$var wire 1 f ww_ADD [2] $end
$var wire 1 g ww_ADD [1] $end
$var wire 1 h ww_ADD [0] $end
$var wire 1 i ww_a2 $end
$var wire 1 j ww_a3 $end
$var wire 1 k ww_a5 $end
$var wire 1 l ww_a6 $end
$var wire 1 m ww_a7 $end
$var wire 1 n ww_b1 $end
$var wire 1 o ww_b2 $end
$var wire 1 p ww_b3 $end
$var wire 1 q ww_b4 $end
$var wire 1 r ww_b5 $end
$var wire 1 s ww_b6 $end
$var wire 1 t ww_b7 $end
$var wire 1 u ww_c1 $end
$var wire 1 v ww_c2 $end
$var wire 1 w ww_c3 $end
$var wire 1 x ww_c4 $end
$var wire 1 y ww_c5 $end
$var wire 1 z ww_c6 $end
$var wire 1 { ww_c7 $end
$var wire 1 | ww_d1 $end
$var wire 1 } ww_d2 $end
$var wire 1 ~ ww_d3 $end
$var wire 1 !! ww_d4 $end
$var wire 1 "! ww_d5 $end
$var wire 1 #! ww_d6 $end
$var wire 1 $! ww_d7 $end
$var wire 1 %! ww_a4 $end
$var wire 1 &! ww_Memory [0] $end
$var wire 1 '! ww_Memory [1] $end
$var wire 1 (! ww_Memory [2] $end
$var wire 1 )! ww_Memory [3] $end
$var wire 1 *! ww_Memory [4] $end
$var wire 1 +! ww_Memory [5] $end
$var wire 1 ,! ww_Memory [6] $end
$var wire 1 -! ww_Memory [7] $end
$var wire 1 .! ww_Memory [8] $end
$var wire 1 /! ww_Memory [9] $end
$var wire 1 0! ww_Memory [10] $end
$var wire 1 1! ww_Memory [11] $end
$var wire 1 2! ww_Memory [12] $end
$var wire 1 3! ww_Memory [13] $end
$var wire 1 4! ww_Memory [14] $end
$var wire 1 5! ww_Memory [15] $end
$var wire 1 6! \volksvagen|altsyncram_component|auto_generated|ram_block1a0_PORTAADDR_bus\ [7] $end
$var wire 1 7! \volksvagen|altsyncram_component|auto_generated|ram_block1a0_PORTAADDR_bus\ [6] $end
$var wire 1 8! \volksvagen|altsyncram_component|auto_generated|ram_block1a0_PORTAADDR_bus\ [5] $end
$var wire 1 9! \volksvagen|altsyncram_component|auto_generated|ram_block1a0_PORTAADDR_bus\ [4] $end
$var wire 1 :! \volksvagen|altsyncram_component|auto_generated|ram_block1a0_PORTAADDR_bus\ [3] $end
$var wire 1 ;! \volksvagen|altsyncram_component|auto_generated|ram_block1a0_PORTAADDR_bus\ [2] $end
$var wire 1 <! \volksvagen|altsyncram_component|auto_generated|ram_block1a0_PORTAADDR_bus\ [1] $end
$var wire 1 =! \volksvagen|altsyncram_component|auto_generated|ram_block1a0_PORTAADDR_bus\ [0] $end
$var wire 1 >! \volksvagen|altsyncram_component|auto_generated|ram_block1a0_PORTADATAOUT_bus\ [19] $end
$var wire 1 ?! \volksvagen|altsyncram_component|auto_generated|ram_block1a0_PORTADATAOUT_bus\ [18] $end
$var wire 1 @! \volksvagen|altsyncram_component|auto_generated|ram_block1a0_PORTADATAOUT_bus\ [17] $end
$var wire 1 A! \volksvagen|altsyncram_component|auto_generated|ram_block1a0_PORTADATAOUT_bus\ [16] $end
$var wire 1 B! \volksvagen|altsyncram_component|auto_generated|ram_block1a0_PORTADATAOUT_bus\ [15] $end
$var wire 1 C! \volksvagen|altsyncram_component|auto_generated|ram_block1a0_PORTADATAOUT_bus\ [14] $end
$var wire 1 D! \volksvagen|altsyncram_component|auto_generated|ram_block1a0_PORTADATAOUT_bus\ [13] $end
$var wire 1 E! \volksvagen|altsyncram_component|auto_generated|ram_block1a0_PORTADATAOUT_bus\ [12] $end
$var wire 1 F! \volksvagen|altsyncram_component|auto_generated|ram_block1a0_PORTADATAOUT_bus\ [11] $end
$var wire 1 G! \volksvagen|altsyncram_component|auto_generated|ram_block1a0_PORTADATAOUT_bus\ [10] $end
$var wire 1 H! \volksvagen|altsyncram_component|auto_generated|ram_block1a0_PORTADATAOUT_bus\ [9] $end
$var wire 1 I! \volksvagen|altsyncram_component|auto_generated|ram_block1a0_PORTADATAOUT_bus\ [8] $end
$var wire 1 J! \volksvagen|altsyncram_component|auto_generated|ram_block1a0_PORTADATAOUT_bus\ [7] $end
$var wire 1 K! \volksvagen|altsyncram_component|auto_generated|ram_block1a0_PORTADATAOUT_bus\ [6] $end
$var wire 1 L! \volksvagen|altsyncram_component|auto_generated|ram_block1a0_PORTADATAOUT_bus\ [5] $end
$var wire 1 M! \volksvagen|altsyncram_component|auto_generated|ram_block1a0_PORTADATAOUT_bus\ [4] $end
$var wire 1 N! \volksvagen|altsyncram_component|auto_generated|ram_block1a0_PORTADATAOUT_bus\ [3] $end
$var wire 1 O! \volksvagen|altsyncram_component|auto_generated|ram_block1a0_PORTADATAOUT_bus\ [2] $end
$var wire 1 P! \volksvagen|altsyncram_component|auto_generated|ram_block1a0_PORTADATAOUT_bus\ [1] $end
$var wire 1 Q! \volksvagen|altsyncram_component|auto_generated|ram_block1a0_PORTADATAOUT_bus\ [0] $end
$var wire 1 R! \~QUARTUS_CREATED_GND~I_combout\ $end
$var wire 1 S! \CLK~input_o\ $end
$var wire 1 T! \CLK~inputCLKENA0_outclk\ $end
$var wire 1 U! \ADD[0]~input_o\ $end
$var wire 1 V! \ADD[1]~input_o\ $end
$var wire 1 W! \ADD[2]~input_o\ $end
$var wire 1 X! \ADD[3]~input_o\ $end
$var wire 1 Y! \ADD[4]~input_o\ $end
$var wire 1 Z! \ADD[5]~input_o\ $end
$var wire 1 [! \ADD[6]~input_o\ $end
$var wire 1 \! \ADD[7]~input_o\ $end
$var wire 1 ]! \inst|53~0_combout\ $end
$var wire 1 ^! \inst|50~0_combout\ $end
$var wire 1 _! \inst|54~0_combout\ $end
$var wire 1 `! \inst|49~0_combout\ $end
$var wire 1 a! \inst|51~0_combout\ $end
$var wire 1 b! \inst|55~0_combout\ $end
$var wire 1 c! \inst1|53~0_combout\ $end
$var wire 1 d! \inst1|50~0_combout\ $end
$var wire 1 e! \inst1|54~0_combout\ $end
$var wire 1 f! \inst1|52~0_combout\ $end
$var wire 1 g! \inst1|49~0_combout\ $end
$var wire 1 h! \inst1|51~0_combout\ $end
$var wire 1 i! \inst1|55~0_combout\ $end
$var wire 1 j! \inst2|53~0_combout\ $end
$var wire 1 k! \inst2|50~0_combout\ $end
$var wire 1 l! \inst2|54~0_combout\ $end
$var wire 1 m! \inst2|52~0_combout\ $end
$var wire 1 n! \inst2|49~0_combout\ $end
$var wire 1 o! \inst2|51~0_combout\ $end
$var wire 1 p! \inst2|55~0_combout\ $end
$var wire 1 q! \inst3|53~0_combout\ $end
$var wire 1 r! \inst3|50~0_combout\ $end
$var wire 1 s! \inst3|54~0_combout\ $end
$var wire 1 t! \inst3|52~0_combout\ $end
$var wire 1 u! \inst3|49~0_combout\ $end
$var wire 1 v! \inst3|51~0_combout\ $end
$var wire 1 w! \inst3|55~0_combout\ $end
$var wire 1 x! \inst|52~0_combout\ $end
$var wire 1 y! \volksvagen|altsyncram_component|auto_generated|q_a\ [15] $end
$var wire 1 z! \volksvagen|altsyncram_component|auto_generated|q_a\ [14] $end
$var wire 1 {! \volksvagen|altsyncram_component|auto_generated|q_a\ [13] $end
$var wire 1 |! \volksvagen|altsyncram_component|auto_generated|q_a\ [12] $end
$var wire 1 }! \volksvagen|altsyncram_component|auto_generated|q_a\ [11] $end
$var wire 1 ~! \volksvagen|altsyncram_component|auto_generated|q_a\ [10] $end
$var wire 1 !" \volksvagen|altsyncram_component|auto_generated|q_a\ [9] $end
$var wire 1 "" \volksvagen|altsyncram_component|auto_generated|q_a\ [8] $end
$var wire 1 #" \volksvagen|altsyncram_component|auto_generated|q_a\ [7] $end
$var wire 1 $" \volksvagen|altsyncram_component|auto_generated|q_a\ [6] $end
$var wire 1 %" \volksvagen|altsyncram_component|auto_generated|q_a\ [5] $end
$var wire 1 &" \volksvagen|altsyncram_component|auto_generated|q_a\ [4] $end
$var wire 1 '" \volksvagen|altsyncram_component|auto_generated|q_a\ [3] $end
$var wire 1 (" \volksvagen|altsyncram_component|auto_generated|q_a\ [2] $end
$var wire 1 )" \volksvagen|altsyncram_component|auto_generated|q_a\ [1] $end
$var wire 1 *" \volksvagen|altsyncram_component|auto_generated|q_a\ [0] $end
$var wire 1 +" \volksvagen|altsyncram_component|auto_generated|ALT_INV_q_a\ [15] $end
$var wire 1 ," \volksvagen|altsyncram_component|auto_generated|ALT_INV_q_a\ [14] $end
$var wire 1 -" \volksvagen|altsyncram_component|auto_generated|ALT_INV_q_a\ [13] $end
$var wire 1 ." \volksvagen|altsyncram_component|auto_generated|ALT_INV_q_a\ [12] $end
$var wire 1 /" \volksvagen|altsyncram_component|auto_generated|ALT_INV_q_a\ [11] $end
$var wire 1 0" \volksvagen|altsyncram_component|auto_generated|ALT_INV_q_a\ [10] $end
$var wire 1 1" \volksvagen|altsyncram_component|auto_generated|ALT_INV_q_a\ [9] $end
$var wire 1 2" \volksvagen|altsyncram_component|auto_generated|ALT_INV_q_a\ [8] $end
$var wire 1 3" \volksvagen|altsyncram_component|auto_generated|ALT_INV_q_a\ [7] $end
$var wire 1 4" \volksvagen|altsyncram_component|auto_generated|ALT_INV_q_a\ [6] $end
$var wire 1 5" \volksvagen|altsyncram_component|auto_generated|ALT_INV_q_a\ [5] $end
$var wire 1 6" \volksvagen|altsyncram_component|auto_generated|ALT_INV_q_a\ [4] $end
$var wire 1 7" \volksvagen|altsyncram_component|auto_generated|ALT_INV_q_a\ [3] $end
$var wire 1 8" \volksvagen|altsyncram_component|auto_generated|ALT_INV_q_a\ [2] $end
$var wire 1 9" \volksvagen|altsyncram_component|auto_generated|ALT_INV_q_a\ [1] $end
$var wire 1 :" \volksvagen|altsyncram_component|auto_generated|ALT_INV_q_a\ [0] $end
$var wire 1 ;" \inst3|ALT_INV_55~0_combout\ $end
$var wire 1 <" \inst2|ALT_INV_55~0_combout\ $end
$var wire 1 =" \inst1|ALT_INV_55~0_combout\ $end
$var wire 1 >" \inst|ALT_INV_55~0_combout\ $end
$upscope $end
$upscope $end
$enddefinitions $end
#0
$dumpvars
0!
0"
0#
0$
0%
0&
1'
00
01
02
03
04
05
16
07
08
09
0:
0;
0<
1=
0>
0?
0@
0A
0B
0C
0D
1E
0V
1W
xX
1Y
1Z
1[
1\
1]
1^
0_
0`
0i
0j
0k
0l
1m
0n
0o
0p
0q
0r
0s
1t
0u
0v
0w
0x
0y
0z
1{
0|
0}
0~
0!!
0"!
0#!
1$!
0%!
xR!
0S!
0T!
0U!
0V!
0W!
0X!
0Y!
0Z!
0[!
0\!
0]!
0^!
0_!
0`!
0a!
0b!
0c!
0d!
0e!
0f!
0g!
0h!
0i!
0j!
0k!
0l!
0m!
0n!
0o!
0p!
0q!
0r!
0s!
0t!
0u!
0v!
0w!
0x!
1;"
1<"
1="
1>"
0(
0)
0*
0+
0,
0-
0.
0/
0a
0b
0c
0d
0e
0f
0g
0h
0&!
0'!
0(!
0)!
0*!
0+!
0,!
0-!
0.!
0/!
00!
01!
02!
03!
04!
05!
0>!
0?!
0@!
0A!
0B!
0C!
0D!
0E!
0F!
0G!
0H!
0I!
0J!
0K!
0L!
0M!
0N!
0O!
0P!
0Q!
0y!
0z!
0{!
0|!
0}!
0~!
0!"
0""
0#"
0$"
0%"
0&"
0'"
0("
0)"
0*"
1+"
1,"
1-"
1."
1/"
10"
11"
12"
13"
14"
15"
16"
17"
18"
19"
1:"
06!
07!
08!
09!
0:!
0;!
0<!
0=!
0F
0G
0H
0I
0J
0K
0L
0M
0N
0O
0P
0Q
0R
0S
0T
0U
$end
#25000
1>
1`
1S!
1T!
#25001
1C!
1D!
1O!
1Q!
1z!
1{!
1("
1*"
0:"
08"
0-"
0,"
1^!
1b!
1r!
1u!
1w!
0;"
0>"
15!
13!
1(!
1'!
1U
1S
1H
1G
1"!
1}
1i
0m
0$!
1C
1@
1"
0'
0E
#50000
0>
0`
0S!
0T!
#75000
1>
1`
1S!
1T!
#100000
0>
1/
0`
1h
1U!
0S!
0T!
1=!
#125000
1>
1`
1S!
1T!
#125001
1B!
0C!
0D!
1E!
1I!
0O!
1y!
0z!
0{!
1|!
1""
0("
18"
02"
0."
1-"
1,"
0+"
0^!
1`!
1c!
1f!
1g!
1h!
1q!
0r!
1t!
1v!
0w!
1;"
03!
1-!
1)!
0(!
0'!
1&!
0S
1M
1I
0H
0G
1F
1#!
1!!
0}
1|
1s
1r
1q
1n
1k
0i
1$!
1D
1B
0@
1?
15
14
13
10
1%
0"
1E
#150000
0>
0`
0S!
0T!
#175000
1>
1`
1S!
1T!
#200000
0>
0/
1.
0`
0h
1g
1V!
0U!
0S!
0T!
0=!
1<!
#225000
1>
1`
1S!
1T!
#225001
0B!
1C!
1D!
0E!
1H!
0I!
1P!
0Q!
0y!
1z!
1{!
0|!
1!"
0""
1)"
0*"
1:"
09"
12"
01"
1."
0-"
0,"
1+"
1^!
0`!
0c!
1e!
0f!
0g!
1i!
0q!
1s!
0t!
0u!
1w!
0;"
0="
05!
14!
0-!
1,!
0)!
1(!
1'!
0&!
0U
1T
0M
1L
0I
1H
1G
0F
0"!
0!!
1~
0|
0r
0q
1p
0n
0k
1i
0t
0$!
0C
0B
1A
0?
04
03
12
00
0%
1"
06
0E
#250000
0>
0`
0S!
0T!
#275000
1>
1`
1S!
1T!
#300000
0>
1/
0`
1h
1U!
0S!
0T!
1=!
#325000
1>
1`
1S!
1T!
#325001
1I!
1O!
0P!
1""
1("
0)"
19"
08"
02"
0e!
1g!
1q!
0s!
1t!
1u!
0v!
04!
13!
1-!
0T
1S
1M
0#!
1"!
1!!
0~
1|
1r
0p
0D
1C
1B
0A
1?
14
02
#350000
0>
0`
0S!
0T!
#375000
1>
1`
1S!
1T!
#400000
0>
0/
0.
1-
0`
0h
0g
1f
1W!
0V!
0U!
0S!
0T!
0=!
0<!
1;!
#425000
1>
1`
1S!
1T!
#425001
0C!
0D!
1F!
1G!
0H!
0I!
1N!
0O!
0z!
0{!
1}!
1~!
0!"
0""
1'"
0("
18"
07"
12"
11"
00"
0/"
1-"
1,"
0^!
0b!
1d!
1e!
0g!
0h!
0i!
0q!
0t!
0u!
1="
1>"
03!
12!
0-!
0,!
1+!
1*!
0(!
0'!
0S
1R
0M
0L
1K
1J
0H
0G
0"!
0!!
0|
0s
0r
1p
1o
0i
1m
1t
0C
0B
0?
05
04
12
11
0"
1'
16
#450000
0>
0`
0S!
0T!
#475000
1>
1`
1S!
1T!
#500000
0>
1/
0`
1h
1U!
0S!
0T!
1=!
#525000
1>
1`
1S!
1T!
#525001
0F!
0G!
0N!
0}!
0~!
0'"
17"
10"
1/"
0d!
0e!
0w!
1;"
02!
0+!
0*!
0R
0K
0J
0p
0o
1$!
02
01
1E
#550000
0>
0`
0S!
0T!
#575000
1>
1`
1S!
1T!
#600000
0>
0/
1.
0`
0h
1g
1V!
0U!
0S!
0T!
0=!
1<!
#625000
1>
1`
1S!
1T!
#650000
0>
0`
0S!
0T!
#675000
1>
1`
1S!
1T!
#700000
0>
1/
0`
1h
1U!
0S!
0T!
1=!
#725000
1>
1`
1S!
1T!
#750000
0>
0`
0S!
0T!
#775000
1>
1`
1S!
1T!
#800000
0>
0/
0.
0-
1,
0`
0h
0g
0f
1e
1X!
0W!
0V!
0U!
0S!
0T!
0=!
0<!
0;!
1:!
#825000
1>
1`
1S!
1T!
#825001
1G!
1~!
00"
1c!
1f!
1g!
1i!
0="
1+!
1K
1r
1q
1n
0t
14
13
10
06
#850000
0>
0`
0S!
0T!
#875000
1>
1`
1S!
1T!
#900000
0>
1/
0`
1h
1U!
0S!
0T!
1=!
#925000
1>
1`
1S!
1T!
#925001
1C!
1D!
0G!
1Q!
1z!
1{!
0~!
1*"
0:"
10"
0-"
0,"
1^!
1b!
0c!
0f!
0g!
0i!
1q!
1t!
1u!
1v!
1="
0>"
15!
0+!
1(!
1'!
1U
0K
1H
1G
1#!
1"!
1!!
1|
0r
0q
0n
1i
0m
1t
1D
1C
1B
1?
04
03
00
1"
0'
16
#950000
0>
0`
0S!
0T!
#975000
1>
1`
1S!
1T!
#1000000
0>
0/
1.
0`
0h
1g
1V!
0U!
0S!
0T!
0=!
1<!
#1025000
1>
1`
1S!
1T!
#1025001
1B!
0C!
0D!
1E!
1y!
0z!
0{!
1|!
0."
1-"
1,"
0+"
0^!
1`!
1)!
0(!
0'!
1&!
1I
0H
0G
1F
1k
0i
1%
0"
#1050000
0>
0`
0S!
0T!
#1075000
1>
1`
1S!
1T!
#1100000
0>
1/
0`
1h
1U!
0S!
0T!
1=!
#1125000
1>
1`
1S!
1T!
#1125001
1P!
0Q!
1)"
0*"
1:"
09"
0q!
1s!
0t!
0u!
1w!
0;"
05!
14!
0U
1T
0"!
0!!
1~
0|
0$!
0C
0B
1A
0?
0E
#1150000
0>
0`
0S!
0T!
#1175000
1>
1`
1S!
1T!
#1200000
0>
0/
0.
1-
0`
0h
0g
1f
1W!
0V!
0U!
0S!
0T!
0=!
0<!
1;!
#1225000
1>
1`
1S!
1T!
#1225001
0B!
1C!
1D!
0E!
1H!
1I!
0y!
1z!
1{!
0|!
1!"
1""
02"
01"
1."
0-"
0,"
1+"
1^!
0`!
1g!
1h!
1i!
0="
1-!
1,!
0)!
1(!
1'!
0&!
1M
1L
0I
1H
1G
0F
1s
1r
0k
1i
0t
15
14
0%
1"
06
#1250000
0>
0`
0S!
0T!
#1275000
1>
1`
1S!
1T!
#1300000
0>
1/
0`
1h
1U!
0S!
0T!
1=!
#1325000
1>
1`
1S!
1T!
#1325001
0H!
0!"
11"
1c!
1f!
0i!
1="
0,!
0L
1q
1n
1t
13
10
16
#1350000
0>
0`
0S!
0T!
#1375000
1>
1`
1S!
1T!
#1400000
0>
0/
1.
0`
0h
1g
1V!
0U!
0S!
0T!
0=!
1<!
#1425000
1>
1`
1S!
1T!
#1425001
1B!
0C!
0D!
1E!
1H!
1y!
0z!
0{!
1|!
1!"
01"
0."
1-"
1,"
0+"
0^!
1`!
0c!
0f!
1i!
0="
1,!
1)!
0(!
0'!
1&!
1L
1I
0H
0G
1F
0q
0n
1k
0i
0t
03
00
1%
0"
06
#1450000
0>
0`
0S!
0T!
#1475000
1>
1`
1S!
1T!
#1500000
0>
1/
0`
1h
1U!
0S!
0T!
1=!
#1525000
1>
1`
1S!
1T!
#1525001
0B!
1C!
1D!
0E!
0I!
0P!
0y!
1z!
1{!
0|!
0""
0)"
19"
12"
1."
0-"
0,"
1+"
1^!
0`!
1e!
0g!
0s!
0v!
0w!
1;"
04!
0-!
0)!
1(!
1'!
0&!
0T
0M
0I
1H
1G
0F
0#!
0~
0r
1p
0k
1i
1$!
0D
0A
04
12
0%
1"
1E
#1550000
0>
0`
0S!
0T!
#1575000
1>
1`
1S!
1T!
#1600000
0>
0/
0.
0-
0,
1+
0`
0h
0g
0f
0e
1d
1Y!
0X!
0W!
0V!
0U!
0S!
0T!
0=!
0<!
0;!
0:!
19!
#1625000
1>
1`
1S!
1T!
#1625001
0H!
1Q!
0!"
1*"
0:"
11"
0e!
0h!
0i!
1q!
1t!
1u!
1v!
1="
15!
0,!
1U
0L
1#!
1"!
1!!
1|
0s
0p
1t
1D
1C
1B
1?
05
02
16
#1650000
0>
0`
0S!
0T!
#1675000
1>
1`
1S!
1T!
#1700000
0>
1/
0`
1h
1U!
0S!
0T!
1=!
#1725000
1>
1`
1S!
1T!
#1725001
0C!
0D!
1F!
0Q!
0z!
0{!
1}!
0*"
1:"
0/"
1-"
1,"
0^!
0b!
1i!
0q!
0t!
0u!
0v!
0="
1>"
05!
1*!
0(!
0'!
0U
1J
0H
0G
0#!
0"!
0!!
0|
0i
1m
0t
0D
0C
0B
0?
0"
1'
06
#1750000
0>
0`
0S!
0T!
#1775000
1>
1`
1S!
1T!
#1800000
0>
0/
1.
0`
0h
1g
1V!
0U!
0S!
0T!
0=!
1<!
#1825000
1>
1`
1S!
1T!
#1825001
0F!
0}!
1/"
0i!
1="
0*!
0J
1t
16
#1850000
0>
0`
0S!
0T!
#1875000
1>
1`
1S!
1T!
#1900000
0>
1/
0`
1h
1U!
0S!
0T!
1=!
#1925000
1>
1`
1S!
1T!
#1950000
0>
0`
0S!
0T!
#1975000
1>
1`
1S!
1T!
