ULA/simulation/qsim/ULA.msim.vcd
$comment
	File created using the following command:
		vcd file ULA.msim.vcd -direction
$end
$date
	Tue Sep 19 16:11:35 2023
$end
$version
	ModelSim Version 10.5b
$end
$timescale
	1ps
$end

$scope module ULA_vlg_vec_tst $end
$var reg 1 ! A0 $end
$var reg 1 " A1 $end
$var reg 1 # A2 $end
$var reg 1 $ A3 $end
$var reg 1 % B0 $end
$var reg 1 & B1 $end
$var reg 1 ' B2 $end
$var reg 1 ( B3 $end
$var reg 2 ) CONT [1:0] $end
$var wire 1 * Z0 $end
$var wire 1 + Z1 $end
$var wire 1 , Z2 $end
$var wire 1 - Z3 $end

$scope module i1 $end
$var wire 1 . gnd $end
$var wire 1 / vcc $end
$var wire 1 0 unknown $end
$var tri1 1 1 devclrn $end
$var tri1 1 2 devpor $end
$var tri1 1 3 devoe $end
$var wire 1 4 ~QUARTUS_CREATED_GND~I_combout $end
$var wire 1 5 A0~input_o $end
$var wire 1 6 B0~input_o $end
$var wire 1 7 inst4|inst33~0_combout $end
$var wire 1 8 CONT[1]~input_o $end
$var wire 1 9 CONT[0]~input_o $end
$var wire 1 : A1~input_o $end
$var wire 1 ; inst|LPM_MUX_component|auto_generated|l2_w0_n0_mux_dataout~0_combout $end
$var wire 1 < inst6~combout $end
$var wire 1 = B1~input_o $end
$var wire 1 > inst4|inst1|inst6~combout $end
$var wire 1 ? A2~input_o $end
$var wire 1 @ inst4|inst17|inst4~combout $end
$var wire 1 A B3~input_o $end
$var wire 1 B A3~input_o $end
$var wire 1 C inst4|inst47|inst3~0_combout $end
$var wire 1 D inst4|inst18|inst4~combout $end
$var wire 1 E B2~input_o $end
$var wire 1 F inst4|inst47|inst3~1_combout $end
$var wire 1 G inst4|inst17|inst3~combout $end
$var wire 1 H inst4|inst35|inst4~0_combout $end
$var wire 1 I inst4|inst35|inst4~1_combout $end
$var wire 1 J inst1|LPM_MUX_component|auto_generated|l2_w0_n0_mux_dataout~0_combout $end
$var wire 1 K inst4|inst35|inst3~combout $end
$var wire 1 L inst4|inst16|inst3~0_combout $end
$var wire 1 M inst4|inst31~0_combout $end
$var wire 1 N inst2|LPM_MUX_component|auto_generated|l2_w0_n0_mux_dataout~0_combout $end
$var wire 1 O inst4|inst2|inst6~combout $end
$var wire 1 P inst3|LPM_MUX_component|auto_generated|l2_w0_n0_mux_dataout~0_combout $end
$var wire 1 Q inst3|LPM_MUX_component|auto_generated|l2_w0_n0_mux_dataout~1_combout $end
$upscope $end
$upscope $end
$enddefinitions $end
#0
$dumpvars
0!
0"
0#
0$
0%
0&
0'
0(
b0 )
0*
0+
0,
0-
0.
1/
x0
11
12
13
04
05
06
07
08
09
0:
0;
1<
0=
0>
0?
1@
0A
0B
1C
1D
0E
0F
0G
0H
0I
0J
0K
0L
0M
0N
0O
0P
0Q
$end
#50000
1$
1&
1B
1=
1H
1P
0D
1I
1Q
1-
1J
1+
#100000
1#
1'
0$
0&
1?
1E
0B
0=
0H
0P
1D
0@
1O
0I
0Q
0-
1P
0J
0+
1Q
1-
#150000
1%
1$
16
1B
0P
0D
17
1;
0Q
0-
1*
#200000
1"
0#
0'
1&
0%
0$
1:
0?
0E
1=
06
0B
1P
1D
1>
07
0O
1@
0P
1M
0;
1Q
1-
0*
0Q
1N
1,
0-
#210000
1'
1%
1E
16
17
1O
0M
1P
0N
1;
1*
0,
1Q
1-
#240000
0'
0%
0E
06
07
0O
1M
0P
1N
0;
0*
1,
0Q
0-
#250000
1(
b1 )
1$
1A
19
1B
0C
1H
0@
0<
1K
1O
1F
0M
0K
#270000
0(
0A
0F
1M
1K
#290000
1(
1A
1F
0M
0K
#300000
1#
1%
0$
0(
1?
16
0B
0A
0F
1M
0D
17
1@
1Q
1-
0O
1I
0M
#350000
0&
1'
0%
1$
0=
1E
06
1B
1P
1M
1D
0H
0>
07
1O
1F
0P
0O
0F
0M
1P
#400000
1!
0"
0#
0'
1%
0$
15
0:
0?
0E
16
0B
0P
0D
1H
1>
0@
0N
0Q
1J
1+
0-
0,
1O
1F
1M
1K
0I
0M
0K
#450000
1&
0%
1$
1=
06
1B
1D
17
0F
1M
1I
#500000
b11 )
b10 )
1#
1'
0&
1%
0$
09
18
1?
1E
0=
16
0B
0D
07
1@
1N
1;
1*
1,
1F
1K
0I
0;
0*
0M
0K
0J
1Q
0N
0,
1-
0+
0Q
0-
#550000
0'
1&
0%
1$
0E
1=
06
1B
1M
1D
17
0O
0F
0M
1I
1P
1;
1N
1,
1*
1Q
1J
0N
0,
1+
1-
#600000
1"
0#
1%
0$
1:
0?
16
0B
0P
1M
0D
07
0@
1O
1F
1K
0I
0;
0Q
1N
1,
0-
0*
0M
0K
0J
1Q
0N
0,
1-
0+
0Q
0-
#650000
1$
1B
1D
0F
1M
1K
1Q
1-
#700000
1'
1#
0$
1E
1?
0B
0D
1@
1F
0M
0K
0Q
0-
#750000
1(
b11 )
1$
1A
19
1B
1D
1N
1J
1;
1*
1+
1,
#800000
0!
0&
0"
0%
0'
0#
0(
0$
05
0=
0:
06
0E
0?
0A
0B
1C
0F
1G
0O
0>
1L
0N
0J
0;
0*
0+
0,
#850000
1(
1$
1A
1B
1M
1K
0D
0C
1N
1,
1F
0M
0K
#900000
1'
1#
0(
0$
1E
1?
0A
0B
1K
0F
0G
0@
0N
1J
1+
0,
1O
1F
1M
0M
0K
#950000
1(
1$
1A
1B
1D
1N
1,
