contador/simulation/qsim/contador.msim.vcd
$comment
	File created using the following command:
		vcd file contador.msim.vcd -direction
$end
$date
	Mon Sep 25 17:01:29 2023
$end
$version
	ModelSim Version 10.5b
$end
$timescale
	1ps
$end

$scope module contador_vlg_vec_tst $end
$var reg 1 ! clear $end
$var reg 1 " clock $end
$var reg 1 # jump $end
$var reg 4 $ op [3:0] $end
$var wire 1 % A $end
$var wire 1 & B $end
$var wire 1 ' C $end
$var wire 1 ( D $end
$var wire 1 ) E $end
$var wire 1 * F $end
$var wire 1 + G $end
$var wire 1 , H $end

$scope module i1 $end
$var wire 1 - gnd $end
$var wire 1 . vcc $end
$var wire 1 / unknown $end
$var tri1 1 0 devclrn $end
$var tri1 1 1 devpor $end
$var tri1 1 2 devoe $end
$var wire 1 3 ~QUARTUS_CREATED_GND~I_combout $end
$var wire 1 4 clear~input_o $end
$var wire 1 5 jump~input_o $end
$var wire 1 6 op[1]~input_o $end
$var wire 1 7 inst29~combout $end
$var wire 1 8 inst17~combout $end
$var wire 1 9 inst1~1_combout $end
$var wire 1 : clock~input_o $end
$var wire 1 ; clock~inputCLKENA0_outclk $end
$var wire 1 < op[0]~input_o $end
$var wire 1 = inst28~combout $end
$var wire 1 > inst16~combout $end
$var wire 1 ? inst~1_combout $end
$var wire 1 @ inst~3_combout $end
$var wire 1 A inst~0_combout $end
$var wire 1 B inst~_emulated_q $end
$var wire 1 C inst~2_combout $end
$var wire 1 D inst1~3_combout $end
$var wire 1 E inst1~0_combout $end
$var wire 1 F inst1~_emulated_q $end
$var wire 1 G inst1~2_combout $end
$var wire 1 H op[2]~input_o $end
$var wire 1 I inst30~combout $end
$var wire 1 J inst18~combout $end
$var wire 1 K inst2~1_combout $end
$var wire 1 L inst2~3_combout $end
$var wire 1 M inst2~0_combout $end
$var wire 1 N inst2~_emulated_q $end
$var wire 1 O inst2~2_combout $end
$var wire 1 P op[3]~input_o $end
$var wire 1 Q inst19~combout $end
$var wire 1 R inst31~combout $end
$var wire 1 S inst3~1_combout $end
$var wire 1 T inst3~3_combout $end
$var wire 1 U inst3~0_combout $end
$var wire 1 V inst3~_emulated_q $end
$var wire 1 W inst3~2_combout $end
$var wire 1 X inst8~0_combout $end
$var wire 1 Y inst8~q $end
$var wire 1 Z inst9~0_combout $end
$var wire 1 [ inst9~q $end
$var wire 1 \ inst10~1_combout $end
$var wire 1 ] inst10~0_combout $end
$var wire 1 ^ inst10~q $end
$var wire 1 _ inst11~1_combout $end
$var wire 1 ` inst11~0_combout $end
$var wire 1 a inst11~q $end
$upscope $end
$upscope $end
$enddefinitions $end
#0
$dumpvars
0!
0"
0#
b0 $
x%
x&
x'
x(
0)
0*
0+
0,
0-
1.
x/
10
11
12
03
04
05
06
07
08
x9
0:
0;
0<
0=
0>
x?
x@
0A
0B
xC
xD
0E
0F
xG
0H
0I
0J
xK
xL
0M
0N
xO
0P
0Q
0R
xS
xT
0U
0V
xW
xX
0Y
0Z
0[
0\
0]
0^
0_
0`
0a
$end
#12500
1"
1:
1;
xV
xN
xF
xB
xY
x)
xZ
#20000
1!
14
1R
1I
1=
17
1E
09
1A
0?
1M
0K
1U
0S
0G
0C
0O
0W
0(
0'
0%
0&
0T
0L
1@
0D
0Z
0F
0B
0N
0V
0Y
0)
0X
#25000
0"
0:
0;
#37500
1"
1:
1;
#50000
0"
0:
0;
#60000
0!
04
0R
0I
0=
07
0E
0A
0M
0U
#62500
1"
1:
1;
1B
1C
1%
1D
0@
#75000
0"
0:
0;
#87500
1"
1:
1;
1F
0B
0C
1G
1&
0%
1@
#100000
0"
0:
0;
#112500
1"
1:
1;
1B
1C
1%
1L
0D
0@
#125000
0"
0:
0;
#137500
1"
1:
1;
1N
0F
0B
0C
0G
1O
1'
0&
0%
1@
#150000
0"
0:
0;
#162500
1"
1:
1;
1B
1C
1%
1D
0@
#175000
0"
0:
0;
#187500
1"
1:
1;
1F
0B
0C
1G
1&
0%
1@
#200000
0"
0:
0;
#212500
1"
1:
1;
1B
1C
1%
1T
0L
0D
0@
#225000
0"
0:
0;
#237500
1"
1:
1;
1V
0N
0F
0B
0C
0G
0O
1W
1(
0'
0&
0%
1@
#250000
0"
0:
0;
#262500
1"
1:
1;
1B
1C
1%
1D
0@
#275000
0"
0:
0;
#287500
1"
1:
1;
1F
0B
0C
1G
1&
0%
1@
#300000
0"
0:
0;
#312500
1"
1:
1;
1B
1C
1%
1L
0D
0@
#325000
0"
0:
0;
#337500
1"
1:
1;
1N
0F
0B
0C
0G
1O
1'
0&
0%
1@
#350000
0"
0:
0;
#362500
1"
1:
1;
1B
1C
1%
1D
0@
#375000
0"
0:
0;
#387500
1"
1:
1;
1F
0B
0C
1G
1&
0%
1@
#400000
0"
0:
0;
#412500
1"
1:
1;
1B
1C
1%
1X
0T
0L
0D
0@
#425000
0"
0:
0;
#437500
1"
1:
1;
0V
0N
0F
0B
1Y
1)
0C
0G
0O
0W
1Z
0X
0(
0'
0&
0%
0Z
1X
1@
#450000
0"
0:
0;
#462500
1"
1:
1;
1B
1C
1%
1D
0@
#475000
0"
0:
0;
#487500
1"
1:
1;
1F
0B
0C
1G
1&
0%
1@
#500000
0"
0:
0;
#512500
1"
1:
1;
1B
1C
1%
1L
0D
0@
#525000
0"
0:
0;
#537500
1"
1:
1;
1N
0F
0B
0C
0G
1O
1'
0&
0%
1@
#550000
0"
0:
0;
#562500
1"
1:
1;
1B
1C
1%
1D
0@
#575000
0"
0:
0;
#587500
1"
1:
1;
1F
0B
0C
1G
1&
0%
1@
#600000
0"
0:
0;
#612500
1"
1:
1;
1B
1C
1%
1T
0L
0D
0@
#625000
0"
0:
0;
#637500
1"
1:
1;
1V
0N
0F
0B
0C
0G
0O
1W
1(
0'
0&
0%
1@
#650000
0"
0:
0;
#662500
1"
1:
1;
1B
1C
1%
1D
0@
#675000
0"
0:
0;
#687500
1"
1:
1;
1F
0B
0C
1G
1&
0%
1@
#700000
0"
0:
0;
#712500
1"
1:
1;
1B
1C
1%
1L
0D
0@
#725000
0"
0:
0;
#737500
1"
1:
1;
1N
0F
0B
0C
0G
1O
1'
0&
0%
1@
#750000
0"
0:
0;
#762500
1"
1:
1;
1B
1C
1%
1D
0@
#775000
0"
0:
0;
#787500
1"
1:
1;
1F
0B
0C
1G
1&
0%
1@
#800000
0"
0:
0;
#812500
1"
1:
1;
1B
1C
1%
1Z
0X
0T
0L
0D
0@
#825000
0"
0:
0;
#837500
1"
1:
1;
0V
0N
0F
0B
1[
0Y
0)
1*
0C
0G
0O
0W
1X
0(
0'
0&
0%
0X
1@
#850000
0"
0:
0;
#862500
1"
1:
1;
1B
1C
1%
1D
0@
#875000
0"
0:
0;
#887500
1"
1:
1;
1F
0B
0C
1G
1&
0%
1@
#900000
0"
0:
0;
#912500
1"
1:
1;
1B
1C
1%
1L
0D
0@
#925000
0"
0:
0;
#937500
1"
1:
1;
1N
0F
0B
0C
0G
1O
1'
0&
0%
1@
#950000
0"
0:
0;
#962500
1"
1:
1;
1B
1C
1%
1D
0@
#975000
0"
0:
0;
#987500
1"
1:
1;
1F
0B
0C
1G
1&
0%
1@
#1000000
0"
0:
0;
#1012500
1"
1:
1;
1B
1C
1%
1T
0L
0D
0@
#1025000
0"
0:
0;
#1037500
1"
1:
1;
1V
0N
0F
0B
0C
0G
0O
1W
1(
0'
0&
0%
1@
#1050000
0"
0:
0;
#1062500
1"
1:
1;
1B
1C
1%
1D
0@
#1075000
0"
0:
0;
#1087500
1"
1:
1;
1F
0B
0C
1G
1&
0%
1@
#1100000
0"
0:
0;
#1112500
1"
1:
1;
1B
1C
1%
1L
0D
0@
#1125000
0"
0:
0;
#1137500
1"
1:
1;
1N
0F
0B
0C
0G
1O
1'
0&
0%
1@
#1150000
0"
0:
0;
#1162500
1"
1:
1;
1B
1C
1%
1D
0@
#1175000
0"
0:
0;
#1187500
1"
1:
1;
1F
0B
0C
1G
1&
0%
1@
#1200000
0"
0:
0;
#1212500
1"
1:
1;
1B
1C
1%
1X
0T
0L
0D
0@
#1225000
0"
0:
0;
#1237500
1"
1:
1;
0V
0N
0F
0B
1Y
1)
1\
0C
0G
0O
0W
0Z
0X
0(
0'
0&
0%
1Z
1X
1@
#1250000
0"
0:
0;
#1262500
1"
1:
1;
1B
1C
1%
1D
0@
#1275000
0"
0:
0;
#1287500
1"
1:
1;
1F
0B
0C
1G
1&
0%
1@
#1300000
0"
0:
0;
#1312500
1"
1:
1;
1B
1C
1%
1L
0D
0@
#1325000
0"
0:
0;
#1337500
1"
1:
1;
1N
0F
0B
0C
0G
1O
1'
0&
0%
1@
#1350000
0"
0:
0;
#1362500
1"
1:
1;
1B
1C
1%
1D
0@
#1375000
0"
0:
0;
#1387500
1"
1:
1;
1F
0B
0C
1G
1&
0%
1@
#1400000
0"
0:
0;
#1412500
1"
1:
1;
1B
1C
1%
1T
0L
0D
0@
#1425000
0"
0:
0;
#1437500
1"
1:
1;
1V
0N
0F
0B
0C
0G
0O
1W
1(
0'
0&
0%
1@
#1450000
0"
0:
0;
#1462500
1"
1:
1;
1B
1C
1%
1D
0@
#1475000
0"
0:
0;
#1487500
1"
1:
1;
1F
0B
0C
1G
1&
0%
1@
#1500000
0"
0:
0;
#1512500
1"
1:
1;
1B
1C
1%
1L
0D
0@
#1525000
0"
0:
0;
#1537500
1"
1:
1;
1N
0F
0B
0C
0G
1O
1'
0&
0%
1@
#1550000
0"
0:
0;
#1562500
1"
1:
1;
1B
1C
1%
1D
0@
#1575000
0"
0:
0;
#1587500
1"
1:
1;
1F
0B
0C
1G
1&
0%
1@
#1600000
0"
0:
0;
#1612500
1"
1:
1;
1B
1C
1%
1]
0Z
0X
0T
0L
0D
0@
#1625000
0"
0:
0;
#1637500
1"
1:
1;
0V
0N
0F
0B
1^
0[
0Y
0)
0*
1+
0\
0C
0G
0O
0W
1X
0]
0(
0'
0&
0%
1]
0X
1@
#1650000
0"
0:
0;
#1662500
1"
1:
1;
1B
1C
1%
1D
0@
#1675000
0"
0:
0;
#1687500
1"
1:
1;
1F
0B
0C
1G
1&
0%
1@
#1700000
0"
0:
0;
#1712500
1"
1:
1;
1B
1C
1%
1L
0D
0@
#1725000
0"
0:
0;
#1737500
1"
1:
1;
1N
0F
0B
0C
0G
1O
1'
0&
0%
1@
#1750000
0"
0:
0;
#1762500
1"
1:
1;
1B
1C
1%
1D
0@
#1775000
0"
0:
0;
#1787500
1"
1:
1;
1F
0B
0C
1G
1&
0%
1@
#1800000
0"
0:
0;
#1812500
1"
1:
1;
1B
1C
1%
1T
0L
0D
0@
#1825000
0"
0:
0;
#1837500
1"
1:
1;
1V
0N
0F
0B
0C
0G
0O
1W
1(
0'
0&
0%
1@
#1850000
0"
0:
0;
#1862500
1"
1:
1;
1B
1C
1%
1D
0@
#1875000
0"
0:
0;
#1887500
1"
1:
1;
1F
0B
0C
1G
1&
0%
1@
#1900000
0"
0:
0;
#1912500
1"
1:
1;
1B
1C
1%
1L
0D
0@
#1925000
0"
0:
0;
#1937500
1"
1:
1;
1N
0F
0B
0C
0G
1O
1'
0&
0%
1@
#1950000
0"
0:
0;
#1962500
1"
1:
1;
1B
1C
1%
1D
0@
#1975000
0"
0:
0;
#1987500
1"
1:
1;
1F
0B
0C
1G
1&
0%
1@
#2000000
0"
0:
0;
#2012500
1"
1:
1;
1B
1C
1%
1X
0T
0L
0D
0@
#2025000
0"
0:
0;
#2037500
1"
1:
1;
0V
0N
0F
0B
1Y
1)
0C
0G
0O
0W
1Z
0X
0(
0'
0&
0%
0Z
1X
1@
#2050000
0"
0:
0;
#2062500
1"
1:
1;
1B
1C
1%
1D
0@
#2075000
0"
0:
0;
#2087500
1"
1:
1;
1F
0B
0C
1G
1&
0%
1@
#2100000
0"
0:
0;
#2112500
1"
1:
1;
1B
1C
1%
1L
0D
0@
#2125000
0"
0:
0;
#2137500
1"
1:
1;
1N
0F
0B
0C
0G
1O
1'
0&
0%
1@
#2150000
0"
0:
0;
#2162500
1"
1:
1;
1B
1C
1%
1D
0@
#2175000
0"
0:
0;
#2187500
1"
1:
1;
1F
0B
0C
1G
1&
0%
1@
#2200000
0"
0:
0;
#2212500
1"
1:
1;
1B
1C
1%
1T
0L
0D
0@
#2225000
0"
0:
0;
#2237500
1"
1:
1;
1V
0N
0F
0B
0C
0G
0O
1W
1(
0'
0&
0%
1@
#2250000
0"
0:
0;
#2262500
1"
1:
1;
1B
1C
1%
1D
0@
#2275000
0"
0:
0;
#2287500
1"
1:
1;
1F
0B
0C
1G
1&
0%
1@
#2300000
0"
0:
0;
#2312500
1"
1:
1;
1B
1C
1%
1L
0D
0@
#2325000
0"
0:
0;
#2337500
1"
1:
1;
1N
0F
0B
0C
0G
1O
1'
0&
0%
1@
#2350000
0"
0:
0;
#2362500
1"
1:
1;
1B
1C
1%
1D
0@
#2375000
0"
0:
0;
#2387500
1"
1:
1;
1F
0B
0C
1G
1&
0%
1@
#2400000
0"
0:
0;
#2412500
1"
1:
1;
1B
1C
1%
1Z
0X
0T
0L
0D
0@
#2425000
0"
0:
0;
#2437500
1"
1:
1;
0V
0N
0F
0B
1[
0Y
0)
1*
0C
0G
0O
0W
1X
0(
0'
0&
0%
0X
1@
#2450000
0"
0:
0;
#2462500
1"
1:
1;
1B
1C
1%
1D
0@
#2475000
0"
0:
0;
#2487500
1"
1:
1;
1F
0B
0C
1G
1&
0%
1@
#2500000
0"
0:
0;
#2512500
1"
1:
1;
1B
1C
1%
1L
0D
0@
#2525000
0"
0:
0;
#2537500
1"
1:
1;
1N
0F
0B
0C
0G
1O
1'
0&
0%
1@
#2550000
0"
0:
0;
#2562500
1"
1:
1;
1B
1C
1%
1D
0@
#2575000
0"
0:
0;
#2587500
1"
1:
1;
1F
0B
0C
1G
1&
0%
1@
#2600000
0"
0:
0;
#2612500
1"
1:
1;
1B
1C
1%
1T
0L
0D
0@
#2625000
0"
0:
0;
#2637500
1"
1:
1;
1V
0N
0F
0B
0C
0G
0O
1W
1(
0'
0&
0%
1@
#2650000
0"
0:
0;
#2662500
1"
1:
1;
1B
1C
1%
1D
0@
#2675000
0"
0:
0;
#2687500
1"
1:
1;
1F
0B
0C
1G
1&
0%
1@
#2700000
0"
0:
0;
#2712500
1"
1:
1;
1B
1C
1%
1L
0D
0@
#2725000
0"
0:
0;
#2737500
1"
1:
1;
1N
0F
0B
0C
0G
1O
1'
0&
0%
1@
#2750000
0"
0:
0;
#2762500
1"
1:
1;
1B
1C
1%
1D
0@
#2775000
0"
0:
0;
#2787500
1"
1:
1;
1F
0B
0C
1G
1&
0%
1@
#2800000
0"
0:
0;
#2812500
1"
1:
1;
1B
1C
1%
1X
0T
0L
0D
0@
#2825000
0"
0:
0;
#2837500
1"
1:
1;
0V
0N
0F
0B
1Y
1)
1_
1\
0C
0G
0O
0W
0Z
0X
0(
0'
0&
0%
1Z
1X
1@
#2850000
0"
0:
0;
#2862500
1"
1:
1;
1B
1C
1%
1D
0@
#2875000
0"
0:
0;
#2887500
1"
1:
1;
1F
0B
0C
1G
1&
0%
1@
#2900000
0"
0:
0;
#2912500
1"
1:
1;
1B
1C
1%
1L
0D
0@
#2925000
0"
0:
0;
#2937500
1"
1:
1;
1N
0F
0B
0C
0G
1O
1'
0&
0%
1@
#2950000
0"
0:
0;
#2962500
1"
1:
1;
1B
1C
1%
1D
0@
#2975000
0"
0:
0;
#2987500
1"
1:
1;
1F
0B
0C
1G
1&
0%
1@
#3000000
0"
0:
0;
#3012500
1"
1:
1;
1B
1C
1%
1T
0L
0D
0@
#3025000
0"
0:
0;
#3037500
1"
1:
1;
1V
0N
0F
0B
0C
0G
0O
1W
1(
0'
0&
0%
1@
#3050000
0"
0:
0;
#3062500
1"
1:
1;
1B
1C
1%
1D
0@
#3075000
0"
0:
0;
#3087500
1"
1:
1;
1F
0B
0C
1G
1&
0%
1@
#3100000
0"
0:
0;
#3112500
1"
1:
1;
1B
1C
1%
1L
0D
0@
#3125000
0"
0:
0;
#3137500
1"
1:
1;
1N
0F
0B
0C
0G
1O
1'
0&
0%
1@
#3150000
0"
0:
0;
#3162500
1"
1:
1;
1B
1C
1%
1D
0@
#3175000
0"
0:
0;
#3187500
1"
1:
1;
1F
0B
0C
1G
1&
0%
1@
#3200000
0"
0:
0;
#3212500
1"
1:
1;
1B
1C
1%
1`
0]
0Z
0X
0T
0L
0D
0@
#3225000
0"
0:
0;
#3237500
1"
1:
1;
0V
0N
0F
0B
1a
0^
0[
0Y
0)
0*
0+
1,
0_
0\
0C
0G
0O
0W
1X
1]
0`
0(
0'
0&
0%
0]
1`
0X
1@
#3250000
0"
0:
0;
#3262500
1"
1:
1;
1B
1C
1%
1D
0@
#3275000
0"
0:
0;
#3287500
1"
1:
1;
1F
0B
0C
1G
1&
0%
1@
#3300000
0"
0:
0;
#3312500
1"
1:
1;
1B
1C
1%
1L
0D
0@
#3325000
0"
0:
0;
#3337500
1"
1:
1;
1N
0F
0B
0C
0G
1O
1'
0&
0%
1@
#3350000
0"
0:
0;
#3362500
1"
1:
1;
1B
1C
1%
1D
0@
#3375000
0"
0:
0;
#3387500
1"
1:
1;
1F
0B
0C
1G
1&
0%
1@
#3400000
0"
0:
0;
#3412500
1"
1:
1;
1B
1C
1%
1T
0L
0D
0@
#3425000
0"
0:
0;
#3437500
1"
1:
1;
1V
0N
0F
0B
0C
0G
0O
1W
1(
0'
0&
0%
1@
#3450000
0"
0:
0;
#3462500
1"
1:
1;
1B
1C
1%
1D
0@
#3475000
0"
0:
0;
#3487500
1"
1:
1;
1F
0B
0C
1G
1&
0%
1@
#3500000
0"
0:
0;
#3512500
1"
1:
1;
1B
1C
1%
1L
0D
0@
#3525000
0"
0:
0;
#3537500
1"
1:
1;
1N
0F
0B
0C
0G
1O
1'
0&
0%
1@
#3550000
0"
0:
0;
#3562500
1"
1:
1;
1B
1C
1%
1D
0@
#3575000
0"
0:
0;
#3587500
1"
1:
1;
1F
0B
0C
1G
1&
0%
1@
#3600000
0"
0:
0;
#3612500
1"
1:
1;
1B
1C
1%
1X
0T
0L
0D
0@
#3625000
0"
0:
0;
#3637500
1"
1:
1;
0V
0N
0F
0B
1Y
1)
0C
0G
0O
0W
1Z
0X
0(
0'
0&
0%
0Z
1X
1@
#3650000
0"
0:
0;
#3662500
1"
1:
1;
1B
1C
1%
1D
0@
#3675000
0"
0:
0;
#3687500
1"
1:
1;
1F
0B
0C
1G
1&
0%
1@
#3700000
0"
0:
0;
#3712500
1"
1:
1;
1B
1C
1%
1L
0D
0@
#3725000
0"
0:
0;
#3737500
1"
1:
1;
1N
0F
0B
0C
0G
1O
1'
0&
0%
1@
#3750000
0"
0:
0;
#3762500
1"
1:
1;
1B
1C
1%
1D
0@
#3775000
0"
0:
0;
#3787500
1"
1:
1;
1F
0B
0C
1G
1&
0%
1@
#3800000
0"
0:
0;
#3812500
1"
1:
1;
1B
1C
1%
1T
0L
0D
0@
#3825000
0"
0:
0;
#3837500
1"
1:
1;
1V
0N
0F
0B
0C
0G
0O
1W
1(
0'
0&
0%
1@
#3850000
0"
0:
0;
#3862500
1"
1:
1;
1B
1C
1%
1D
0@
#3875000
0"
0:
0;
#3887500
1"
1:
1;
1F
0B
0C
1G
1&
0%
1@
#3900000
0"
0:
0;
#3912500
1"
1:
1;
1B
1C
1%
1L
0D
0@
#3925000
0"
0:
0;
#3937500
1"
1:
1;
1N
0F
0B
0C
0G
1O
1'
0&
0%
1@
#3950000
0"
0:
0;
#3962500
1"
1:
1;
1B
1C
1%
1D
0@
#3975000
0"
0:
0;
#3987500
1"
1:
1;
1F
0B
0C
1G
1&
0%
1@
#4000000
0"
0:
0;
#4012500
1"
1:
1;
1B
1C
1%
1Z
0X
0T
0L
0D
0@
#4025000
0"
0:
0;
#4037500
1"
1:
1;
0V
0N
0F
0B
1[
0Y
0)
1*
0C
0G
0O
0W
1X
0(
0'
0&
0%
0X
1@
#4050000
0"
0:
0;
#4062500
1"
1:
1;
1B
1C
1%
1D
0@
#4075000
0"
0:
0;
#4087500
1"
1:
1;
1F
0B
0C
1G
1&
0%
1@
#4100000
0"
0:
0;
#4112500
1"
1:
1;
1B
1C
1%
1L
0D
0@
#4125000
0"
0:
0;
#4137500
1"
1:
1;
1N
0F
0B
0C
0G
1O
1'
0&
0%
1@
#4150000
0"
0:
0;
#4162500
1"
1:
1;
1B
1C
1%
1D
0@
#4175000
0"
0:
0;
#4187500
1"
1:
1;
1F
0B
0C
1G
1&
0%
1@
#4200000
0"
0:
0;
#4212500
1"
1:
1;
1B
1C
1%
1T
0L
0D
0@
#4225000
0"
0:
0;
#4237500
1"
1:
1;
1V
0N
0F
0B
0C
0G
0O
1W
1(
0'
0&
0%
1@
#4250000
0"
0:
0;
#4262500
1"
1:
1;
1B
1C
1%
1D
0@
#4275000
0"
0:
0;
#4287500
1"
1:
1;
1F
0B
0C
1G
1&
0%
1@
#4300000
0"
0:
0;
#4312500
1"
1:
1;
1B
1C
1%
1L
0D
0@
#4325000
0"
0:
0;
#4337500
1"
1:
1;
1N
0F
0B
0C
0G
1O
1'
0&
0%
1@
#4350000
0"
0:
0;
#4362500
1"
1:
1;
1B
1C
1%
1D
0@
#4375000
0"
0:
0;
#4387500
1"
1:
1;
1F
0B
0C
1G
1&
0%
1@
#4400000
0"
0:
0;
#4412500
1"
1:
1;
1B
1C
1%
1X
0T
0L
0D
0@
#4425000
0"
0:
0;
#4437500
1"
1:
1;
0V
0N
0F
0B
1Y
1)
1\
0C
0G
0O
0W
0Z
0X
0(
0'
0&
0%
1Z
1X
1@
#4450000
0"
0:
0;
#4462500
1"
1:
1;
1B
1C
1%
1D
0@
#4475000
0"
0:
0;
#4487500
1"
1:
1;
1F
0B
0C
1G
1&
0%
1@
#4500000
0"
0:
0;
#4512500
1"
1:
1;
1B
1C
1%
1L
0D
0@
#4525000
0"
0:
0;
#4537500
1"
1:
1;
1N
0F
0B
0C
0G
1O
1'
0&
0%
1@
#4550000
0"
0:
0;
#4562500
1"
1:
1;
1B
1C
1%
1D
0@
#4575000
0"
0:
0;
#4587500
1"
1:
1;
1F
0B
0C
1G
1&
0%
1@
#4600000
0"
0:
0;
#4612500
1"
1:
1;
1B
1C
1%
1T
0L
0D
0@
#4625000
0"
0:
0;
#4637500
1"
1:
1;
1V
0N
0F
0B
0C
0G
0O
1W
1(
0'
0&
0%
1@
#4650000
0"
0:
0;
#4662500
1"
1:
1;
1B
1C
1%
1D
0@
#4675000
0"
0:
0;
#4687500
1"
1:
1;
1F
0B
0C
1G
1&
0%
1@
#4700000
0"
0:
0;
#4712500
1"
1:
1;
1B
1C
1%
1L
0D
0@
#4725000
0"
0:
0;
#4737500
1"
1:
1;
1N
0F
0B
0C
0G
1O
1'
0&
0%
1@
#4750000
0"
0:
0;
#4762500
1"
1:
1;
1B
1C
1%
1D
0@
#4775000
0"
0:
0;
#4787500
1"
1:
1;
1F
0B
0C
1G
1&
0%
1@
#4800000
0"
0:
0;
#4812500
1"
1:
1;
1B
1C
1%
1]
0Z
0X
0T
0L
0D
0@
#4825000
0"
0:
0;
#4837500
1"
1:
1;
0V
0N
0F
0B
1^
0[
0Y
0)
0*
1+
0\
0C
0G
0O
0W
1X
0]
0(
0'
0&
0%
1]
0X
1@
#4850000
0"
0:
0;
#4862500
1"
1:
1;
1B
1C
1%
1D
0@
#4875000
0"
0:
0;
#4887500
1"
1:
1;
1F
0B
0C
1G
1&
0%
1@
#4900000
0"
0:
0;
#4912500
1"
1:
1;
1B
1C
1%
1L
0D
0@
#4925000
0"
0:
0;
#4937500
1"
1:
1;
1N
0F
0B
0C
0G
1O
1'
0&
0%
1@
#4950000
0"
0:
0;
#4962500
1"
1:
1;
1B
1C
1%
1D
0@
#4975000
0"
0:
0;
#4987500
1"
1:
1;
1F
0B
0C
1G
1&
0%
1@
#5000000
0"
0:
0;
#5012500
1"
1:
1;
1B
1C
1%
1T
0L
0D
0@
#5025000
0"
0:
0;
#5037500
1"
1:
1;
1V
0N
0F
0B
0C
0G
0O
1W
1(
0'
0&
0%
1@
#5050000
0"
0:
0;
#5062500
1"
1:
1;
1B
1C
1%
1D
0@
#5075000
0"
0:
0;
#5087500
1"
1:
1;
1F
0B
0C
1G
1&
0%
1@
#5100000
0"
0:
0;
#5112500
1"
1:
1;
1B
1C
1%
1L
0D
0@
#5125000
0"
0:
0;
#5137500
1"
1:
1;
1N
0F
0B
0C
0G
1O
1'
0&
0%
1@
#5150000
0"
0:
0;
#5162500
1"
1:
1;
1B
1C
1%
1D
0@
#5175000
0"
0:
0;
#5187500
1"
1:
1;
1F
0B
0C
1G
1&
0%
1@
#5200000
0"
0:
0;
#5212500
1"
1:
1;
1B
1C
1%
1X
0T
0L
0D
0@
#5225000
0"
0:
0;
#5237500
1"
1:
1;
0V
0N
0F
0B
1Y
1)
0C
0G
0O
0W
1Z
0X
0(
0'
0&
0%
0Z
1X
1@
#5250000
0"
0:
0;
#5262500
1"
1:
1;
1B
1C
1%
1D
0@
#5275000
0"
0:
0;
#5287500
1"
1:
1;
1F
0B
0C
1G
1&
0%
1@
#5300000
0"
0:
0;
#5312500
1"
1:
1;
1B
1C
1%
1L
0D
0@
#5325000
0"
0:
0;
#5337500
1"
1:
1;
1N
0F
0B
0C
0G
1O
1'
0&
0%
1@
#5350000
0"
0:
0;
#5362500
1"
1:
1;
1B
1C
1%
1D
0@
#5375000
0"
0:
0;
#5387500
1"
1:
1;
1F
0B
0C
1G
1&
0%
1@
#5400000
0"
0:
0;
#5412500
1"
1:
1;
1B
1C
1%
1T
0L
0D
0@
#5425000
0"
0:
0;
#5437500
1"
1:
1;
1V
0N
0F
0B
0C
0G
0O
1W
1(
0'
0&
0%
1@
#5450000
0"
0:
0;
#5462500
1"
1:
1;
1B
1C
1%
1D
0@
#5475000
0"
0:
0;
#5487500
1"
1:
1;
1F
0B
0C
1G
1&
0%
1@
#5500000
0"
0:
0;
#5512500
1"
1:
1;
1B
1C
1%
1L
0D
0@
#5525000
0"
0:
0;
#5537500
1"
1:
1;
1N
0F
0B
0C
0G
1O
1'
0&
0%
1@
#5550000
0"
0:
0;
#5562500
1"
1:
1;
1B
1C
1%
1D
0@
#5575000
0"
0:
0;
#5587500
1"
1:
1;
1F
0B
0C
1G
1&
0%
1@
#5600000
0"
0:
0;
#5612500
1"
1:
1;
1B
1C
1%
1Z
0X
0T
0L
0D
0@
#5625000
0"
0:
0;
#5637500
1"
1:
1;
0V
0N
0F
0B
1[
0Y
0)
1*
0C
0G
0O
0W
1X
0(
0'
0&
0%
0X
1@
#5650000
0"
0:
0;
#5662500
1"
1:
1;
1B
1C
1%
1D
0@
#5675000
0"
0:
0;
#5687500
1"
1:
1;
1F
0B
0C
1G
1&
0%
1@
#5700000
0"
0:
0;
#5712500
1"
1:
1;
1B
1C
1%
1L
0D
0@
#5725000
0"
0:
0;
#5737500
1"
1:
1;
1N
0F
0B
0C
0G
1O
1'
0&
0%
1@
#5750000
0"
0:
0;
#5762500
1"
1:
1;
1B
1C
1%
1D
0@
#5775000
0"
0:
0;
#5787500
1"
1:
1;
1F
0B
0C
1G
1&
0%
1@
#5800000
0"
0:
0;
#5812500
1"
1:
1;
1B
1C
1%
1T
0L
0D
0@
#5825000
0"
0:
0;
#5837500
1"
1:
1;
1V
0N
0F
0B
0C
0G
0O
1W
1(
0'
0&
0%
1@
#5850000
0"
0:
0;
#5862500
1"
1:
1;
1B
1C
1%
1D
0@
#5875000
0"
0:
0;
#5887500
1"
1:
1;
1F
0B
0C
1G
1&
0%
1@
#5900000
0"
0:
0;
#5912500
1"
1:
1;
1B
1C
1%
1L
0D
0@
#5925000
0"
0:
0;
#5937500
1"
1:
1;
1N
0F
0B
0C
0G
1O
1'
0&
0%
1@
#5950000
0"
0:
0;
#5962500
1"
1:
1;
1B
1C
1%
1D
0@
#5975000
0"
0:
0;
#5987500
1"
1:
1;
1F
0B
0C
1G
1&
0%
1@
#6000000
0"
0:
0;
#6012500
1"
1:
1;
1B
1C
1%
1X
0T
0L
0D
0@
#6025000
0"
0:
0;
#6037500
1"
1:
1;
0V
0N
0F
0B
1Y
1)
1_
1\
0C
0G
0O
0W
0Z
0X
0(
0'
0&
0%
1Z
1X
1@
#6050000
0"
0:
0;
#6062500
1"
1:
1;
1B
1C
1%
1D
0@
#6075000
0"
0:
0;
#6087500
1"
1:
1;
1F
0B
0C
1G
1&
0%
1@
#6100000
0"
0:
0;
#6112500
1"
1:
1;
1B
1C
1%
1L
0D
0@
#6125000
0"
0:
0;
#6137500
1"
1:
1;
1N
0F
0B
0C
0G
1O
1'
0&
0%
1@
#6150000
0"
0:
0;
#6162500
1"
1:
1;
1B
1C
1%
1D
0@
#6175000
0"
0:
0;
#6187500
1"
1:
1;
1F
0B
0C
1G
1&
0%
1@
#6200000
0"
0:
0;
#6212500
1"
1:
1;
1B
1C
1%
1T
0L
0D
0@
#6225000
0"
0:
0;
#6237500
1"
1:
1;
1V
0N
0F
0B
0C
0G
0O
1W
1(
0'
0&
0%
1@
#6250000
0"
0:
0;
#6262500
1"
1:
1;
1B
1C
1%
1D
0@
#6275000
0"
0:
0;
#6287500
1"
1:
1;
1F
0B
0C
1G
1&
0%
1@
#6300000
0"
0:
0;
#6312500
1"
1:
1;
1B
1C
1%
1L
0D
0@
#6325000
0"
0:
0;
#6337500
1"
1:
1;
1N
0F
0B
0C
0G
1O
1'
0&
0%
1@
#6350000
0"
0:
0;
#6362500
1"
1:
1;
1B
1C
1%
1D
0@
#6375000
0"
0:
0;
#6387500
1"
1:
1;
1F
0B
0C
1G
1&
0%
1@
#6400000
0"
0:
0;
#6412500
1"
1:
1;
1B
1C
1%
0`
0]
0Z
0X
0T
0L
0D
0@
#6425000
0"
0:
0;
